<?xml version="1.0" encoding="UTF-8" standalone="no"?>
<!-- Created with Inkscape (http://www.inkscape.org/) -->

<svg
   xmlns:dc="http://purl.org/dc/elements/1.1/"
   xmlns:cc="http://creativecommons.org/ns#"
   xmlns:rdf="http://www.w3.org/1999/02/22-rdf-syntax-ns#"
   xmlns:svg="http://www.w3.org/2000/svg"
   xmlns="http://www.w3.org/2000/svg"
   xmlns:sodipodi="http://sodipodi.sourceforge.net/DTD/sodipodi-0.dtd"
   xmlns:inkscape="http://www.inkscape.org/namespaces/inkscape"
   width="7.7588654mm"
   height="7.6445408mm"
   viewBox="0 0 7.7588654 7.6445408"
   version="1.1"
   id="svg1313"
   inkscape:version="0.92.5 (2060ec1f9f, 2020-04-08)"
   sodipodi:docname="search-icon-1.svg">
  <defs
     id="defs1307" />
  <sodipodi:namedview
     id="base"
     pagecolor="#ffffff"
     bordercolor="#666666"
     borderopacity="1.0"
     inkscape:pageopacity="0.0"
     inkscape:pageshadow="2"
     inkscape:zoom="0.35"
     inkscape:cx="-185.33758"
     inkscape:cy="-359.83934"
     inkscape:document-units="mm"
     inkscape:current-layer="layer1"
     showgrid="false"
     fit-margin-top="0"
     fit-margin-left="0"
     fit-margin-right="0"
     fit-margin-bottom="0"
     inkscape:window-width="1288"
     inkscape:window-height="704"
     inkscape:window-x="72"
     inkscape:window-y="27"
     inkscape:window-maximized="1" />
  <metadata
     id="metadata1310">
    <rdf:RDF>
      <cc:Work
         rdf:about="">
        <dc:format>image/svg+xml</dc:format>
        <dc:type
           rdf:resource="http://purl.org/dc/dcmitype/StillImage" />
        <dc:title></dc:title>
      </cc:Work>
    </rdf:RDF>
  </metadata>
  <g
     inkscape:label="Capa 1"
     inkscape:groupmode="layer"
     id="layer1"
     transform="translate(-19.555091,-45.981301)">
    <g
       id="g95"
       transform="matrix(0.015173,0,0,0.01489351,19.540525,45.981301)"
       style="fill:#2ad4ff">
      <g
         id="g38"
         style="fill:#2ad4ff">
        <g
           id="g36"
           style="fill:#2ad4ff">
          <path
             id="path34"
             d="M 495.04,404.48 410.56,320 c 15.36,-30.72 25.6,-66.56 25.6,-102.4 C 436.16,97.28 338.88,0 218.56,0 98.24,0 0.96,97.28 0.96,217.6 c 0,120.32 97.28,217.6 217.6,217.6 35.84,0 71.68,-10.24 102.4,-25.6 l 84.48,84.48 c 25.6,25.6 64,25.6 89.6,0 23.04,-25.6 23.04,-64 0,-89.6 z M 218.56,384 c -92.16,0 -166.4,-74.24 -166.4,-166.4 0,-92.16 74.24,-166.4 166.4,-166.4 92.16,0 166.4,74.24 166.4,166.4 0,92.16 -74.24,166.4 -166.4,166.4 z"
             inkscape:connector-curvature="0"
             style="fill:#2ad4ff" />
        </g>
      </g>
      <g
         id="g40"
         style="fill:#2ad4ff" />
      <g
         id="g42"
         style="fill:#2ad4ff" />
      <g
         id="g44"
         style="fill:#2ad4ff" />
      <g
         id="g46"
         style="fill:#2ad4ff" />
      <g
         id="g48"
         style="fill:#2ad4ff" />
      <g
         id="g50"
         style="fill:#2ad4ff" />
      <g
         id="g52"
         style="fill:#2ad4ff" />
      <g
         id="g54"
         style="fill:#2ad4ff" />
      <g
         id="g56"
         style="fill:#2ad4ff" />
      <g
         id="g58"
         style="fill:#2ad4ff" />
      <g
         id="g60"
         style="fill:#2ad4ff" />
      <g
         id="g62"
         style="fill:#2ad4ff" />
      <g
         id="g64"
         style="fill:#2ad4ff" />
      <g
         id="g66"
         style="fill:#2ad4ff" />
      <g
         id="g68"
         style="fill:#2ad4ff" />
    </g>
  </g>
</svg>
